<svg width="173" height="149" viewBox="0 0 173 149" fill="none" xmlns="http://www.w3.org/2000/svg">
<path d="M165.792 117.958C165.792 121.251 164.273 124.41 161.57 126.738C158.866 129.067 155.199 130.375 151.376 130.375H21.6257C17.8021 130.375 14.1352 129.067 11.4315 126.738C8.72788 124.41 7.20898 121.251 7.20898 117.958V49.6667C7.20898 46.3736 8.72788 43.2153 11.4315 40.8868C14.1352 38.5582 17.8021 37.25 21.6257 37.25H50.459L64.8756 18.625H108.126L122.542 37.25H151.376C155.199 37.25 158.866 38.5582 161.57 40.8868C164.273 43.2153 165.792 46.3736 165.792 49.6667V117.958Z" stroke="black" stroke-opacity="0.17" stroke-width="2" stroke-linecap="round" stroke-linejoin="round"/>
<path d="M86.4993 105.542C102.424 105.542 115.333 94.4234 115.333 80.7083C115.333 66.9933 102.424 55.875 86.4993 55.875C70.5751 55.875 57.666 66.9933 57.666 80.7083C57.666 94.4234 70.5751 105.542 86.4993 105.542Z" stroke="black" stroke-opacity="0.17" stroke-width="2" stroke-linecap="round" stroke-linejoin="round"/>
</svg>
